{
  "builders": [{
    "type": "docker",
    "image": "ruby:2.5-alpine",
    "commit": "true"
  }],
 "provisioners": [
    {
      "type": "shell",
      "inline": "apk --no-cache install nodejs mysql-client"
    }
  ],
  "post-processors": [
    [
      {
        "type": "docker-tag",
        "repository": "refinerycms/development",
        "tag": "1.0"
      }
    ]
  ]
}
